\relax 
\catcode `"\active 
\catcode `<\active 
\catcode `>\active 
\@nameuse{es@quoting}
\select@language{spanish}
\@writefile{toc}{\select@language{spanish}}
\@writefile{lof}{\select@language{spanish}}
\@writefile{lot}{\select@language{spanish}}
\@writefile{toc}{\contentsline {section}{\numberline {1}\IeC {\textquestiondown }A qu\'e se refiere la segunda forma de utilizar bulma?}{1}}
\@writefile{toc}{\contentsline {section}{\numberline {2}\IeC {\textquestiondown }Qu\'e es un WebService?}{1}}
\@writefile{toc}{\contentsline {section}{\numberline {3}\IeC {\textquestiondown }Qu\'e es JSON?}{1}}
\@writefile{toc}{\contentsline {section}{\numberline {4}\IeC {\textquestiondown }Qu\'e es SASS?}{1}}
\@writefile{toc}{\contentsline {section}{\numberline {5}\IeC {\textquestiondown }C\'omo realizar un alias en GIT?}{1}}
